refV = 3923
0,  6.75,  5.56,  3884.94,  6.44 
1,  43.25,  3.19,  3885.44,  7.69 
2,  84.69,  3.50,  3885.62,  8.62 
3,  119.50,  3.44,  3884.38,  7.69 
4,  161.19,  3.00,  3884.38,  7.75 
5,  200.25,  4.25,  3883.38,  8.50 
6,  238.44,  4.94,  3883.19,  7.56 
7,  277.38,  3.19,  3883.19,  7.81 
8,  317.44,  4.31,  3882.62,  7.69 
9,  356.50,  3.50,  3883.44,  8.00 
10,  397.12,  5.56,  3883.12,  7.94 
11,  436.38,  3.62,  3891.44,  8.12 
12,  476.19,  4.25,  3888.56,  8.50 
13,  514.06,  4.12,  3887.12,  8.50 
14,  553.06,  3.50,  3885.50,  8.50 
15,  591.25,  4.75,  3884.81,  7.50 
16,  633.06,  3.88,  3883.94,  7.75 
17,  669.94,  4.12,  3883.25,  8.12 
18,  709.19,  5.25,  3884.31,  8.12 
19,  749.00,  5.62,  3883.19,  7.00 
20,  788.19,  5.25,  3884.06,  8.12 
21,  828.25,  6.00,  3883.50,  8.12 
22,  864.69,  4.75,  3884.00,  8.00 
23,  902.19,  6.00,  3884.44,  9.12 
24,  939.00,  5.25,  3884.44,  7.00 
25,  981.75,  6.50,  3884.19,  7.88 
26,  1019.12,  6.38,  3883.69,  8.50 
27,  1058.69,  6.75,  3883.88,  8.50 
28,  1099.19,  6.38,  3882.75,  7.75 
29,  1140.75,  5.62,  3883.69,  8.12 
30,  1180.38,  6.50,  3881.31,  7.88 
31,  1221.19,  9.12,  3880.94,  8.12 
32,  1259.06,  7.25,  3882.69,  7.38 
33,  1294.31,  9.00,  3884.06,  8.38 
34,  1332.50,  8.44,  3884.94,  8.00 
35,  1372.88,  8.19,  3884.81,  7.62 
36,  1413.25,  7.75,  3884.38,  8.25 
37,  1451.00,  6.75,  3884.19,  8.00 
38,  1490.94,  8.00,  3884.94,  8.12 
39,  1530.81,  7.12,  3884.62,  7.88 
40,  1572.19,  6.38,  3885.50,  8.12 
41,  1612.56,  7.00,  3884.06,  8.00 
42,  1651.44,  7.38,  3884.88,  8.00 
43,  1688.50,  7.12,  3884.31,  8.50 
44,  1726.38,  7.25,  3886.12,  8.00 
45,  1763.94,  7.12,  3885.62,  7.88 
46,  1800.69,  7.25,  3884.81,  7.38 
47,  1839.88,  7.38,  3884.38,  8.38 
48,  1881.00,  7.62,  3887.56,  8.38 
49,  1921.75,  7.00,  3886.06,  8.12 
50,  1962.12,  8.25,  3884.19,  7.75 
51,  2002.12,  9.75,  3882.62,  8.88 
52,  2041.94,  10.50,  3884.06,  8.12 
53,  2079.12,  9.88,  3886.81,  7.50 
54,  2117.25,  9.62,  3885.75,  7.62 
55,  2154.38,  9.06,  3886.19,  8.38 
56,  2191.31,  8.50,  3886.44,  8.25 
57,  2231.00,  8.38,  3885.81,  8.75 
58,  2272.31,  8.50,  3886.88,  8.25 
59,  2311.69,  9.12,  3886.25,  8.12 
60,  2351.69,  8.00,  3886.50,  8.12 
61,  2392.31,  8.75,  3887.25,  7.88 
62,  2430.62,  8.75,  3886.44,  8.75 
63,  2469.00,  8.88,  3888.12,  7.88 
64,  2505.12,  9.12,  3885.69,  7.88 
65,  2544.69,  8.50,  3887.50,  7.75 
66,  2584.75,  8.38,  3886.56,  8.12 
67,  2623.69,  8.38,  3887.06,  8.50 
68,  2663.44,  8.19,  3887.88,  8.25 
69,  2702.81,  8.12,  3889.00,  8.12 
70,  2742.94,  10.12,  3888.19,  8.62 
71,  2782.88,  9.25,  3888.50,  8.12 
72,  2822.56,  9.88,  3889.00,  7.88 
73,  2860.12,  10.12,  3887.69,  8.50 
74,  2895.75,  8.88,  3887.62,  8.38 
75,  2934.81,  10.00,  3888.00,  7.12 
76,  2978.81,  9.62,  3889.12,  7.88 
77,  3017.38,  10.75,  3887.94,  8.00 
78,  3055.00,  10.12,  3887.12,  7.88 
79,  3094.69,  10.50,  3887.69,  8.25 
80,  3133.50,  10.00,  3888.06,  8.00 
81,  3173.75,  10.75,  3888.31,  8.62 
82,  3212.25,  10.50,  3887.50,  8.25 
83,  3249.81,  11.81,  3888.50,  8.38 
84,  3287.88,  12.25,  3887.00,  8.50 
85,  3326.69,  12.25,  3886.75,  8.50 
86,  3365.50,  12.62,  3886.06,  8.25 
87,  3405.31,  11.88,  3883.94,  7.62 
88,  3445.44,  12.50,  3882.06,  8.38 
89,  3484.19,  12.00,  3881.50,  8.38 
90,  3525.56,  11.50,  3889.56,  8.38 
91,  3564.38,  11.88,  3888.25,  7.88 
92,  3603.88,  11.38,  3888.38,  8.00 
93,  3642.69,  14.88,  3889.31,  8.25 
94,  3681.69,  16.25,  3889.31,  8.38 
95,  3720.75,  16.62,  3890.38,  8.00 
96,  3758.44,  14.38,  3887.38,  8.12 
97,  3798.56,  14.62,  3887.50,  8.50 
98,  3837.62,  12.94,  3886.00,  7.75 
99,  3856.25,  12.75,  3885.62,  8.00 
100,  3857.75,  10.75,  3888.69,  7.44 
